^C:\USERS\PC\DESKTOP\PONG_TEST\PONG_TEST\CONTROLS.CPP
/c /IC:\USERS\PC\DESKTOP\PONG_TEST\PONG_TEST\PONG_TEST /IC:\USERS\PC\DESKTOP\PONG_TEST\LIB\RAYLIB\INCLUDE /Zi /nologo /W3 /WX- /diagnostics:column /sdl /O2 /Oi /Oy- /GL /D GRAPHICS_API_OPENGL_33 /D PLATFORM_DESKTOP /D _MBCS /Gm- /EHsc /MD /GS /Gy /fp:precise /permissive- /Zc:wchar_t /Zc:forScope /Zc:inline /Fo"RELEASE\\" /Fd"RELEASE\VC142.PDB" /Gd /TP /analyze- /FC C:\USERS\PC\DESKTOP\PONG_TEST\PONG_TEST\CONTROLS.CPP
^C:\USERS\PC\DESKTOP\PONG_TEST\PONG_TEST\CREDITS.CPP
/c /IC:\USERS\PC\DESKTOP\PONG_TEST\PONG_TEST\PONG_TEST /IC:\USERS\PC\DESKTOP\PONG_TEST\LIB\RAYLIB\INCLUDE /Zi /nologo /W3 /WX- /diagnostics:column /sdl /O2 /Oi /Oy- /GL /D GRAPHICS_API_OPENGL_33 /D PLATFORM_DESKTOP /D _MBCS /Gm- /EHsc /MD /GS /Gy /fp:precise /permissive- /Zc:wchar_t /Zc:forScope /Zc:inline /Fo"RELEASE\\" /Fd"RELEASE\VC142.PDB" /Gd /TP /analyze- /FC C:\USERS\PC\DESKTOP\PONG_TEST\PONG_TEST\CREDITS.CPP
^C:\USERS\PC\DESKTOP\PONG_TEST\PONG_TEST\GAME.CPP
/c /IC:\USERS\PC\DESKTOP\PONG_TEST\PONG_TEST\PONG_TEST /IC:\USERS\PC\DESKTOP\PONG_TEST\LIB\RAYLIB\INCLUDE /Zi /nologo /W3 /WX- /diagnostics:column /sdl /O2 /Oi /Oy- /GL /D GRAPHICS_API_OPENGL_33 /D PLATFORM_DESKTOP /D _MBCS /Gm- /EHsc /MD /GS /Gy /fp:precise /permissive- /Zc:wchar_t /Zc:forScope /Zc:inline /Fo"RELEASE\\" /Fd"RELEASE\VC142.PDB" /Gd /TP /analyze- /FC C:\USERS\PC\DESKTOP\PONG_TEST\PONG_TEST\GAME.CPP
^C:\USERS\PC\DESKTOP\PONG_TEST\PONG_TEST\MAIN.CPP
/c /IC:\USERS\PC\DESKTOP\PONG_TEST\PONG_TEST\PONG_TEST /IC:\USERS\PC\DESKTOP\PONG_TEST\LIB\RAYLIB\INCLUDE /Zi /nologo /W3 /WX- /diagnostics:column /sdl /O2 /Oi /Oy- /GL /D GRAPHICS_API_OPENGL_33 /D PLATFORM_DESKTOP /D _MBCS /Gm- /EHsc /MD /GS /Gy /fp:precise /permissive- /Zc:wchar_t /Zc:forScope /Zc:inline /Fo"RELEASE\\" /Fd"RELEASE\VC142.PDB" /Gd /TP /analyze- /FC C:\USERS\PC\DESKTOP\PONG_TEST\PONG_TEST\MAIN.CPP
^C:\USERS\PC\DESKTOP\PONG_TEST\PONG_TEST\MENU.CPP
/c /IC:\USERS\PC\DESKTOP\PONG_TEST\PONG_TEST\PONG_TEST /IC:\USERS\PC\DESKTOP\PONG_TEST\LIB\RAYLIB\INCLUDE /Zi /nologo /W3 /WX- /diagnostics:column /sdl /O2 /Oi /Oy- /GL /D GRAPHICS_API_OPENGL_33 /D PLATFORM_DESKTOP /D _MBCS /Gm- /EHsc /MD /GS /Gy /fp:precise /permissive- /Zc:wchar_t /Zc:forScope /Zc:inline /Fo"RELEASE\\" /Fd"RELEASE\VC142.PDB" /Gd /TP /analyze- /FC C:\USERS\PC\DESKTOP\PONG_TEST\PONG_TEST\MENU.CPP
